My Data Analysis Portfolio - machinelearning
…
tree_res %>%
collect_metrics(summarize = TRUE)

# A tibble: 50 × 8
   cost_complexity tree_depth .metric .estimator     mean     n std_err .config 
             <dbl>      <int> <chr>   <chr>         <dbl> <int>   <dbl> <chr>   
 1    0.0000000001          1 rmse    standard     1.19       5  0.0315 Preproc…
 2    0.0000000001          1 rsq     standard     0.0575     5  0.0107 Preproc…
 3    0.0000000178          1 rmse    standard     1.19       5  0.0315 Preproc…
 4    0.0000000178          1 rsq     standard     0.0575     5  0.0107 Preproc…
 5    0.00000316            1 rmse    standard     1.19       5  0.0315 Preproc…
 6    0.00000316            1 rsq     standard     0.0575     5  0.0107 Preproc…
 7    0.000562              1 rmse    standard     1.19       5  0.0315 Preproc…
 8    0.000562              1 rsq     standard     0.0575     5  0.0107 Preproc…
 9    0.1                   1 rmse    standard     1.23       5  0.0290 Preproc…
10    0.1                   1 rsq     standard   NaN          0 NA      Preproc…
# … with 40 more rows
# ℹ Use `print(n = ...)` to see more rows
…
