My Data Analysis Portfolio - Model Evaluation
…
Computational engine: glm 

flu_fit<-
  flu_wflow %>%
  fit(data=train_data)

#to view your model details

flu_fit %>%
  extract_fit_parsnip() %>%
  tidy()

# A tibble: 38 × 5
   term                 estimate std.error statistic p.value
   <chr>                   <dbl>     <dbl>     <dbl>   <dbl>
 1 (Intercept)             1.63      9.40      0.173  0.862 
 2 SwollenLymphNodesYes   -0.241     0.232    -1.04   0.298 
 3 ChestCongestionYes      0.219     0.257     0.853  0.394 
 4 ChillsSweatsYes         0.115     0.332     0.346  0.729 
 5 NasalCongestionYes      0.560     0.311     1.80   0.0713
 6 CoughYNYes             -0.705     0.611    -1.15   0.249 
 7 SneezeYes               0.117     0.248     0.473  0.636 
 8 FatigueYes              0.177     0.438     0.403  0.687 
 9 SubjectiveFeverYes      0.229     0.264     0.868  0.385 
10 HeadacheYes             0.435     0.352     1.24   0.216 
# ℹ 28 more rows

Model flu_fit evaluation

predict(flu_fit,test_data)

Warning in predict.lm(object, newdata, se.fit, scale = 1, type = if (type == :
prediction from a rank-deficient fit may be misleading

# A tibble: 183 × 1
   .pred_class
   <fct>      
 1 No         
 2 No         
 3 No         
 4 No         
 5 No         
 6 Yes        
 7 Yes        
 8 No         
 9 No         
10 Yes        
# ℹ 173 more rows

flu_aug <-
  augment(flu_fit, test_data)

Warning in predict.lm(object, newdata, se.fit, scale = 1, type = if (type == :
prediction from a rank-deficient fit may be misleading

Warning in predict.lm(object, newdata, se.fit, scale = 1, type = if (type == :
prediction from a rank-deficient fit may be misleading

flu_aug %>%
select (Nausea, RunnyNose,Fatigue,.pred_class,.pred_Yes)

# A tibble: 183 × 5
   Nausea RunnyNose Fatigue .pred_class .pred_Yes
   <fct>  <fct>     <fct>   <fct>           <dbl>
 1 No     No        Yes     No             0.0377
 2 Yes    Yes       Yes     No             0.283 
 3 No     Yes       Yes     No             0.320 
 4 Yes    Yes       Yes     No             0.442 
 5 No     No        Yes     No             0.170 
 6 Yes    No        Yes     Yes            0.812 
 7 Yes    Yes       Yes     Yes            0.746 
 8 No     No        Yes     No             0.275 
 9 No     No        Yes     No             0.280 
10 Yes    No        Yes     Yes            0.719 
# ℹ 173 more rows
…
flu_fitA %>%
  extract_fit_parsnip() %>%
  tidy()

# A tibble: 2 × 5
  term         estimate std.error statistic    p.value
  <chr>           <dbl>     <dbl>     <dbl>      <dbl>
1 (Intercept)    -0.790     0.172    -4.59  0.00000447
2 RunnyNoseYes    0.188     0.202     0.930 0.352     

Model flu_fit evaluation

predict(flu_fitA,test_data)

# A tibble: 183 × 1
   .pred_class
   <fct>      
 1 No         
 2 No         
 3 No         
 4 No         
 5 No         
 6 No         
 7 No         
 8 No         
 9 No         
10 No         
# ℹ 173 more rows

flu_augA <-
  augment(flu_fitA, test_data)

flu_augA %>%
select (Nausea, RunnyNose,Fatigue,.pred_class,.pred_Yes)

# A tibble: 183 × 5
   Nausea RunnyNose Fatigue .pred_class .pred_Yes
   <fct>  <fct>     <fct>   <fct>           <dbl>
 1 No     No        Yes     No              0.312
 2 Yes    Yes       Yes     No              0.354
 3 No     Yes       Yes     No              0.354
 4 Yes    Yes       Yes     No              0.354
 5 No     No        Yes     No              0.312
 6 Yes    No        Yes     No              0.312
 7 Yes    Yes       Yes     No              0.354
 8 No     No        Yes     No              0.312
 9 No     No        Yes     No              0.312
10 Yes    No        Yes     No              0.312
# ℹ 173 more rows
…
Now that we have created the workflow, we can fit the model to the training and test data sets created previously.

training_fit_linear <- flu_wflow_linear %>%
                fit(data = training_data_linear)
test_fit_linear <- flu_wflow_linear %>%
                fit(data = test_data_linear)

The next step is to use the trained workflows, training_fit, to predict with unseen test data.

predict(training_fit_linear, test_data_linear)

Warning in predict.lm(object = object$fit, newdata = new_data, type =
"response"): prediction from a rank-deficient fit may be misleading

# A tibble: 183 × 1
   .pred
   <dbl>
 1  99.4
 2  98.8
 3  99.8
 4  98.8
 5  98.4
 6  99.9
 7  99.2
 8  98.9
 9  99.1
10  99.4
# ℹ 173 more rows
…
