My Data Analysis Portfolio - Module 4 - Data Finding and Wrangling
…
Also defined by 'memisc'

Found more than one class "haven_labelled" in cache; using the first, from namespace 'haven'

Also defined by 'memisc'

   Min. 1st Qu.  Median    Mean 3rd Qu.    Max. 
  1.000   3.000   3.000   2.764   3.000   3.000 

#creating a subset for smokers only based on B01 Do you currently smoke? only interested in responses 1,2 only (for daily and less than daily)

subset(Bselect, B01<=2)

# A tibble: 631 × 5
   A01       B01                   B04 B07                    B06A
   <dbl+lbl> <dbl+lbl>           <dbl> <dbl+lbl>             <dbl>
 1 1 [MALE]  1 [DAILY]              16  2 [6 TO 30 MINUTES]      5
 2 1 [MALE]  2 [LESS THAN DAILY]    NA NA                       NA
 3 1 [MALE]  1 [DAILY]              18  2 [6 TO 30 MINUTES]      5
 4 1 [MALE]  1 [DAILY]              14  2 [6 TO 30 MINUTES]      4
 5 1 [MALE]  1 [DAILY]              17  1 [WITHIN 5 MINUTES]     1
 6 1 [MALE]  2 [LESS THAN DAILY]    NA NA                       NA
 7 1 [MALE]  2 [LESS THAN DAILY]    NA NA                       NA
 8 1 [MALE]  2 [LESS THAN DAILY]    NA NA                       NA
 9 1 [MALE]  1 [DAILY]              19  2 [6 TO 30 MINUTES]     15
10 1 [MALE]  1 [DAILY]              20  3 [31 TO 60 MINUTES]     2
# … with 621 more rows
# ℹ Use `print(n = ...)` to see more rows
…
#check your new variable

Bselect2[1:500, ]

# A tibble: 500 × 6
   A01       B01                   B04 B07                    B06A   HSI
   <dbl+lbl> <dbl+lbl>           <dbl> <dbl+lbl>             <dbl> <dbl>
 1 1 [MALE]  1 [DAILY]              16  2 [6 TO 30 MINUTES]      5     3
 2 1 [MALE]  2 [LESS THAN DAILY]    NA NA                       NA    NA
 3 1 [MALE]  1 [DAILY]              18  2 [6 TO 30 MINUTES]      5     3
 4 1 [MALE]  1 [DAILY]              14  2 [6 TO 30 MINUTES]      4     3
 5 1 [MALE]  1 [DAILY]              17  1 [WITHIN 5 MINUTES]     1     2
 6 1 [MALE]  2 [LESS THAN DAILY]    NA NA                       NA    NA
 7 1 [MALE]  2 [LESS THAN DAILY]    NA NA                       NA    NA
 8 1 [MALE]  2 [LESS THAN DAILY]    NA NA                       NA    NA
 9 1 [MALE]  1 [DAILY]              19  2 [6 TO 30 MINUTES]     15     3
10 1 [MALE]  1 [DAILY]              20  3 [31 TO 60 MINUTES]     2     4
# … with 490 more rows
# ℹ Use `print(n = ...)` to see more rows
…
df_Bselect2<-Bselect2[complete.cases(Bselect2$HSI),]

#check if NA is removed

df_Bselect2[1:500, ]

# A tibble: 500 × 6
   A01       B01         B04 B07                       B06A   HSI
   <dbl+lbl> <dbl+lbl> <dbl> <dbl+lbl>                <dbl> <dbl>
 1 1 [MALE]  1 [DAILY]    16 2 [6 TO 30 MINUTES]          5     3
 2 1 [MALE]  1 [DAILY]    18 2 [6 TO 30 MINUTES]          5     3
 3 1 [MALE]  1 [DAILY]    14 2 [6 TO 30 MINUTES]          4     3
 4 1 [MALE]  1 [DAILY]    17 1 [WITHIN 5 MINUTES]         1     2
 5 1 [MALE]  1 [DAILY]    19 2 [6 TO 30 MINUTES]         15     3
 6 1 [MALE]  1 [DAILY]    20 3 [31 TO 60 MINUTES]         2     4
 7 1 [MALE]  1 [DAILY]    16 1 [WITHIN 5 MINUTES]         6     2
 8 1 [MALE]  1 [DAILY]    16 4 [MORE THAN 60 MINUTES]     6     5
 9 1 [MALE]  1 [DAILY]    18 4 [MORE THAN 60 MINUTES]     2     5
10 1 [MALE]  1 [DAILY]    18 4 [MORE THAN 60 MINUTES]    10     5
# … with 490 more rows
# ℹ Use `print(n = ...)` to see more rows
…
