My Data Analysis Portfolio - modeleval
…
Computational engine: glm 

flu_fit<-
  flu_wflow %>%
  fit(data=train_data)

#to view your model details

flu_fit %>%
  extract_fit_parsnip() %>%
  tidy()

# A tibble: 38 × 5
   term                 estimate std.error statistic p.value
   <chr>                   <dbl>     <dbl>     <dbl>   <dbl>
 1 (Intercept)             1.63      9.40      0.173  0.862 
 2 SwollenLymphNodesYes   -0.241     0.232    -1.04   0.298 
 3 ChestCongestionYes      0.219     0.257     0.853  0.394 
 4 ChillsSweatsYes         0.115     0.332     0.346  0.729 
 5 NasalCongestionYes      0.560     0.311     1.80   0.0713
 6 CoughYNYes             -0.705     0.611    -1.15   0.249 
 7 SneezeYes               0.117     0.248     0.473  0.636 
 8 FatigueYes              0.177     0.438     0.403  0.687 
 9 SubjectiveFeverYes      0.229     0.264     0.868  0.385 
10 HeadacheYes             0.435     0.352     1.24   0.216 
# … with 28 more rows
# ℹ Use `print(n = ...)` to see more rows

predict(flu_fit,test_data)

Warning in predict.lm(object, newdata, se.fit, scale = 1, type = if (type == :
prediction from a rank-deficient fit may be misleading

# A tibble: 183 × 1
   .pred_class
   <fct>      
 1 No         
 2 No         
 3 No         
 4 No         
 5 No         
 6 Yes        
 7 Yes        
 8 No         
 9 No         
10 Yes        
# … with 173 more rows
# ℹ Use `print(n = ...)` to see more rows

flu_aug <-
  augment(flu_fit, test_data)

Warning in predict.lm(object, newdata, se.fit, scale = 1, type = if (type == :
prediction from a rank-deficient fit may be misleading

Warning in predict.lm(object, newdata, se.fit, scale = 1, type = if (type == :
prediction from a rank-deficient fit may be misleading

flu_aug %>%
select (Nausea, RunnyNose,Fatigue,.pred_class,.pred_Yes)

# A tibble: 183 × 5
   Nausea RunnyNose Fatigue .pred_class .pred_Yes
   <fct>  <fct>     <fct>   <fct>           <dbl>
 1 No     No        Yes     No             0.0377
 2 Yes    Yes       Yes     No             0.283 
 3 No     Yes       Yes     No             0.320 
 4 Yes    Yes       Yes     No             0.442 
 5 No     No        Yes     No             0.170 
 6 Yes    No        Yes     Yes            0.812 
 7 Yes    Yes       Yes     Yes            0.746 
 8 No     No        Yes     No             0.275 
 9 No     No        Yes     No             0.280 
10 Yes    No        Yes     Yes            0.719 
# … with 173 more rows
# ℹ Use `print(n = ...)` to see more rows
…
