My Data Analysis Portfolio - Tidy Tuesday Exercise
…
names(age_gaps)

 [1] "movie_name"         "release_year"       "director"          
 [4] "age_difference"     "couple_number"      "actor_1_name"      
 [7] "actor_2_name"       "character_1_gender" "character_2_gender"
[10] "actor_1_birthdate"  "actor_2_birthdate"  "actor_1_age"       
[13] "actor_2_age"       

print(age_gaps)

# A tibble: 1,155 × 13
   movie_name    relea…¹ direc…² age_d…³ coupl…⁴ actor…⁵ actor…⁶ chara…⁷ chara…⁸
   <chr>           <dbl> <chr>     <dbl>   <dbl> <chr>   <chr>   <chr>   <chr>  
 1 Harold and M…    1971 Hal As…      52       1 Ruth G… Bud Co… woman   man    
 2 Venus            2006 Roger …      50       1 Peter … Jodie … man     woman  
 3 The Quiet Am…    2002 Philli…      49       1 Michae… Do Thi… man     woman  
 4 The Big Lebo…    1998 Joel C…      45       1 David … Tara R… man     woman  
 5 Beginners        2010 Mike M…      43       1 Christ… Goran … man     man    
 6 Poison Ivy       1992 Katt S…      42       1 Tom Sk… Drew B… man     woman  
 7 Whatever Wor…    2009 Woody …      40       1 Larry … Evan R… man     woman  
 8 Entrapment       1999 Jon Am…      39       1 Sean C… Cather… man     woman  
 9 Husbands and…    1992 Woody …      38       1 Woody … Juliet… man     woman  
10 Magnolia         1999 Paul T…      38       1 Jason … Julian… man     woman  
# … with 1,145 more rows, 4 more variables: actor_1_birthdate <date>,
#   actor_2_birthdate <date>, actor_1_age <dbl>, actor_2_age <dbl>, and
#   abbreviated variable names ¹​release_year, ²​director, ³​age_difference,
#   ⁴​couple_number, ⁵​actor_1_name, ⁶​actor_2_name, ⁷​character_1_gender,
#   ⁸​character_2_gender
# ℹ Use `print(n = ...)` to see more rows, and `colnames()` to see all variable names
…
#Directors characteristics #director with the most releases.

age_gaps %>% group_by(director) %>% summarise(Freq=n()) %>% arrange(desc(Freq)) 

# A tibble: 510 × 2
   director          Freq
   <chr>            <int>
 1 Woody Allen         20
 2 John Glen           15
 3 Martin Scorsese     13
 4 Mike Newell         10
 5 Steven Spielberg    10
 6 David Fincher        9
 7 Dennis Dugan         9
 8 Guy Hamilton         9
 9 Mike Nichols         9
10 Nancy Meyers         9
# … with 500 more rows
# ℹ Use `print(n = ...)` to see more rows
…
